{
  "rel_db"  : {
    "database": "appdata",
    "user": "postgres",
    "password": "nikomu2020",
    "host": "185.118.164.178",
    "port": "5932"
    },
  "influx" : {
    "host": "185.118.164.178",
    "port": 8086,
    "database": "meter_readings",
    "username": "admin",
    "password": "nikomu2020"
  },
  "modbusTCP" : {
    "number_thread": 2,
    "max_timeout": 10
  }
}